#  
# 
newmtl body_bag_guts_body_bag_guts_d.dds
Ns 96.078431
Ka 0.000000 0.000000 0.000000
Kd 0.640000 0.640000 0.640000
Ks 0.000000 0.000000 0.000000
Ni 1.000000
d 0.000000
illum 1
map_Kd body_bag_guts_d.dds


newmtl blood_body_bag_guts_d.dds
Ns 96.078431
Ka 0.000000 0.000000 0.000000
Kd 0.640000 0.640000 0.640000
Ks 0.000000 0.000000 0.000000
Ni 1.000000
d 0.000000
illum 1
map_Kd body_bag_guts_d.dds


